# -*- coding: utf-8 mode: shell-script -*-
#
# The purpose of this test is making sure that spin-polarized
# calculations work.
# It is the calculation of one atom of Carbon, within the LSDA
# calculation.
#
# The result *almost* compares (to within 0.1eV) with the results
# given at the NIST webpage:
# http://physics.nist.gov/PhysRefData/DFTdata/contents.html
# The reasons for the discrepancy may be two:
# o The NIST calculation is all-electron.
# o The NIST calculation uses the VWN correlation. Here I have put
#   put PZ, because otherwise the results are even worse (probably
#   our VWN has some bug?)
# It would be nice to investigate the reason for the small
# discrepancy...

CalculationMode = gs
fromScratch = yes
UnitsOutput = ev_angstrom

%Coordinates
"C" | 0 | 0 | 0
%

%Species
"C" | species_pseudo | db_file | "PSF/C.psf" |lmax | 1 | lloc | 1
%

spacing = 0.19*angstrom
radius = 5.0*angstrom

SpinComponents = polarized

ExtraStates = 2
%Occupations
2/3 | 2/3 | 2/3
0 | 0 | 0
%

XCFunctional = lda_x + lda_c_pz

PoissonSolver = fft
PoissonFFTKernel = multipole_correction

ConvRelDens = 4e-6

FilterPotentials = filter_none

MixField = density
